{
  "id": 854514,
  "title": "LaTeX",
  "cover": "cover.jpg",
  "base": "latex",
  "icon": "mdi-format-text",
  "items": [
    {
      "id": 868308,
      "title": "1 Einleitung",
      "page": "1-introduction/",
      "items": [
        {
          "id": 690238,
          "title": "1.2 Overleaf",
          "page": "1-introduction/2-overleaf/"
        },
        {
          "id": 818030,
          "title": "1.3 Syntax",
          "page": "1-introduction/syntax/"
        },
        {
          "id": 45133,
          "title": "1.4 Pakete",
          "page": "1-introduction/package/"
        },
        {
          "id": 614656,
          "title": "1.5 Lorem Ipsum",
          "page": "1-introduction/5-lorem-ipsum/"
        }
      ]
    },
    {
      "id": 739489,
      "title": "2 Textformatierung",
      "page": "2-text/",
      "items": [
        {
          "id": 972611,
          "title": "2.1 Absätze",
          "page": "2-text/1-paragraph/"
        },
        {
          "id": 860772,
          "title": "2.2 Textgliederung",
          "page": "2-text/2-structure/"
        },
        {
          "id": 110781,
          "title": "2.3 Zeichenformatierung",
          "icon": "construction",
          "page": "2-text/3-inline-format/"
        },
        {
          "id": 673901,
          "title": "2.4 Aufzählungen",
          "page": "2-text/4-itemize/"
        },
        {
          "id": 562089,
          "title": "2.5 Schriftgrösse",
          "page": "2-text/5-font-size/"
        },
        {
          "id": 739816,
          "title": "2.6 Zeilenabstand",
          "page": "2-text/6-line-spacing/"
        },
        {
          "id": 597410,
          "title": "2.7 Schriftarten",
          "page": "2-text/7-font/"
        }
      ]
    },
    {
      "id": 838429,
      "title": "3 Abbildungen",
      "page": "3-figure/",
      "items": [
        {
          "id": 400450,
          "title": "3.1 Bilder",
          "page": "3-figure/1-image/"
        },
        {
          "id": 105941,
          "title": "3.2 Abbildungen",
          "page": "3-figure/2-figure/"
        },
        {
          "id": 249934,
          "title": "3.3 Massangaben",
          "page": "3-figure/3-measure/"
        },
        {
          "id": 494111,
          "title": "3.4 Positionierung",
          "page": "3-figure/4-position/"
        }
      ]
    },
    {
      "id": 911114,
      "title": "4 Tabellen",
      "page": "4-table/",
      "items": [
        {
          "id": 662024,
          "title": "Tabellen vorbereiten",
          "page": "4-table/2-prepare/"
        }
      ]
    },
    {
      "id": 575277,
      "title": "5 Seitenlayout",
      "page": "5-page-layout/",
      "items": [
        {
          "id": 960679,
          "title": "5.1 Papierformat",
          "page": "5-page-layout/1-paper-format/"
        },
        {
          "id": 822661,
          "title": "5.2 Seiteneinteilung",
          "page": "5-page-layout/2-typearea/"
        },
        {
          "id": 543092,
          "title": "5.3 Kopf- und Fusszeile",
          "page": "5-page-layout/3-header-footer/"
        }
      ]
    },
    {
      "id": 5818,
      "title": "6 Mathematik",
      "page": "6-math/",
      "items": [
        {
          "id": 309017,
          "title": "6.1 Umgebungen",
          "page": "6-math/1-env/"
        },
        {
          "id": 885757,
          "title": "6.2 Formeln",
          "page": "6-math/2-formula/"
        },
        {
          "id": 180994,
          "title": "6.3 Symbole",
          "page": "6-math/3-symbol/"
        },
        {
          "id": 993701,
          "title": "6.4 Matrizen",
          "page": "6-math/4-matrix/"
        }
      ]
    },
    {
      "id": 724863,
      "title": "7 Rahmen, Farben, Links",
      "page": "7-colour/",
      "items": [
        {
          "id": 752699,
          "title": "7.1 Farben",
          "page": "7-colour/1-colour/"
        },
        {
          "id": 966900,
          "title": "7.2 Links",
          "page": "7-colour/2-link/"
        }
      ]
    },
    {
      "id": 454528,
      "title": "Zitieren",
      "page": "8-0-citation-bibliography/"
    },
    {
      "id": 796256,
      "title": "Spezialanwendungen",
      "page": "b-special/",
      "items": [
        {
          "id": 162397,
          "title": "PDFs einbinden",
          "page": "b-special/1-pdfpages/"
        },
        {
          "id": 895334,
          "title": "Musik mit harmony",
          "page": "b-special/2-harmony/"
        },
        {
          "id": 66321,
          "title": "Musik mit musixtex",
          "page": "b-special/3-musixtex/"
        }
      ]
    },
    {
      "id": 421340,
      "title": "Maturaarbeit",
      "page": "a-ma/"
    }
  ]
}
