<?xml version="1.0" encoding="UTF-8"?>
<svg xmlns="http://www.w3.org/2000/svg" xmlns:xlink="http://www.w3.org/1999/xlink" width="534pt" height="362pt" viewBox="0 0 534 362" version="1.1">
<g id="surface82190">
<rect x="0" y="0" width="534" height="362" style="fill:rgb(100%,100%,100%);fill-opacity:1;stroke:none;"/>
<path style="fill-rule:evenodd;fill:rgb(100%,100%,100%);fill-opacity:1;stroke-width:0.05;stroke-linecap:butt;stroke-linejoin:miter;stroke:rgb(0%,0%,0%);stroke-opacity:1;stroke-miterlimit:10;" d="M 0.500078 0.500078 L 1.900078 0.500078 L 1.900078 2.500078 L 0.500078 2.500078 Z M 0.500078 0.500078 " transform="matrix(20,0,0,20,-8.9,-8.9)"/>
<path style="fill-rule:evenodd;fill:rgb(100%,100%,100%);fill-opacity:1;stroke-width:0.05;stroke-linecap:butt;stroke-linejoin:miter;stroke:rgb(0%,0%,0%);stroke-opacity:1;stroke-miterlimit:10;" d="M 0.500078 2.500078 L 1.900078 2.500078 L 1.900078 4.500078 L 0.500078 4.500078 Z M 0.500078 2.500078 " transform="matrix(20,0,0,20,-8.9,-8.9)"/>
<path style="fill-rule:evenodd;fill:rgb(100%,100%,100%);fill-opacity:1;stroke-width:0.05;stroke-linecap:butt;stroke-linejoin:miter;stroke:rgb(0%,0%,0%);stroke-opacity:1;stroke-miterlimit:10;" d="M 1.900078 0.500078 L 3.300078 0.500078 L 3.300078 2.500078 L 1.900078 2.500078 Z M 1.900078 0.500078 " transform="matrix(20,0,0,20,-8.9,-8.9)"/>
<path style="fill-rule:evenodd;fill:rgb(100%,100%,100%);fill-opacity:1;stroke-width:0.05;stroke-linecap:butt;stroke-linejoin:miter;stroke:rgb(0%,0%,0%);stroke-opacity:1;stroke-miterlimit:10;" d="M 1.900078 2.500078 L 3.300078 2.500078 L 3.300078 4.500078 L 1.900078 4.500078 Z M 1.900078 2.500078 " transform="matrix(20,0,0,20,-8.9,-8.9)"/>
<path style="fill-rule:evenodd;fill:rgb(100%,100%,100%);fill-opacity:1;stroke-width:0.05;stroke-linecap:butt;stroke-linejoin:miter;stroke:rgb(0%,0%,0%);stroke-opacity:1;stroke-miterlimit:10;" d="M 3.300078 0.500078 L 4.700078 0.500078 L 4.700078 2.500078 L 3.300078 2.500078 Z M 3.300078 0.500078 " transform="matrix(20,0,0,20,-8.9,-8.9)"/>
<path style="fill-rule:evenodd;fill:rgb(74.117649%,74.117649%,74.117649%);fill-opacity:1;stroke-width:0.05;stroke-linecap:butt;stroke-linejoin:miter;stroke:rgb(0%,0%,0%);stroke-opacity:1;stroke-miterlimit:10;" d="M 3.300078 2.500078 L 4.700078 2.500078 L 4.700078 4.500078 L 3.300078 4.500078 Z M 3.300078 2.500078 " transform="matrix(20,0,0,20,-8.9,-8.9)"/>
<path style="fill-rule:evenodd;fill:rgb(100%,100%,100%);fill-opacity:1;stroke-width:0.05;stroke-linecap:butt;stroke-linejoin:miter;stroke:rgb(0%,0%,0%);stroke-opacity:1;stroke-miterlimit:10;" d="M 0.500078 4.500078 L 1.900078 4.500078 L 1.900078 6.500078 L 0.500078 6.500078 Z M 0.500078 4.500078 " transform="matrix(20,0,0,20,-8.9,-8.9)"/>
<path style="fill-rule:evenodd;fill:rgb(100%,100%,100%);fill-opacity:1;stroke-width:0.05;stroke-linecap:butt;stroke-linejoin:miter;stroke:rgb(0%,0%,0%);stroke-opacity:1;stroke-miterlimit:10;" d="M 1.900078 4.500078 L 3.300078 4.500078 L 3.300078 6.500078 L 1.900078 6.500078 Z M 1.900078 4.500078 " transform="matrix(20,0,0,20,-8.9,-8.9)"/>
<path style="fill-rule:evenodd;fill:rgb(74.117649%,74.117649%,74.117649%);fill-opacity:1;stroke-width:0.05;stroke-linecap:butt;stroke-linejoin:miter;stroke:rgb(0%,0%,0%);stroke-opacity:1;stroke-miterlimit:10;" d="M 3.300078 4.500078 L 4.700078 4.500078 L 4.700078 6.500078 L 3.300078 6.500078 Z M 3.300078 4.500078 " transform="matrix(20,0,0,20,-8.9,-8.9)"/>
<path style="fill-rule:evenodd;fill:rgb(100%,100%,100%);fill-opacity:1;stroke-width:0.05;stroke-linecap:butt;stroke-linejoin:miter;stroke:rgb(0%,0%,0%);stroke-opacity:1;stroke-miterlimit:10;" d="M 4.700078 0.500078 L 6.100078 0.500078 L 6.100078 2.500078 L 4.700078 2.500078 Z M 4.700078 0.500078 " transform="matrix(20,0,0,20,-8.9,-8.9)"/>
<path style="fill-rule:evenodd;fill:rgb(74.117649%,74.117649%,74.117649%);fill-opacity:1;stroke-width:0.05;stroke-linecap:butt;stroke-linejoin:miter;stroke:rgb(0%,0%,0%);stroke-opacity:1;stroke-miterlimit:10;" d="M 4.700078 2.500078 L 6.100078 2.500078 L 6.100078 4.500078 L 4.700078 4.500078 Z M 4.700078 2.500078 " transform="matrix(20,0,0,20,-8.9,-8.9)"/>
<path style="fill-rule:evenodd;fill:rgb(100%,100%,100%);fill-opacity:1;stroke-width:0.05;stroke-linecap:butt;stroke-linejoin:miter;stroke:rgb(0%,0%,0%);stroke-opacity:1;stroke-miterlimit:10;" d="M 6.100078 0.500078 L 7.500078 0.500078 L 7.500078 2.500078 L 6.100078 2.500078 Z M 6.100078 0.500078 " transform="matrix(20,0,0,20,-8.9,-8.9)"/>
<path style="fill-rule:evenodd;fill:rgb(74.117649%,74.117649%,74.117649%);fill-opacity:1;stroke-width:0.05;stroke-linecap:butt;stroke-linejoin:miter;stroke:rgb(0%,0%,0%);stroke-opacity:1;stroke-miterlimit:10;" d="M 6.100078 2.500078 L 7.500078 2.500078 L 7.500078 4.500078 L 6.100078 4.500078 Z M 6.100078 2.500078 " transform="matrix(20,0,0,20,-8.9,-8.9)"/>
<path style="fill-rule:evenodd;fill:rgb(100%,100%,100%);fill-opacity:1;stroke-width:0.05;stroke-linecap:butt;stroke-linejoin:miter;stroke:rgb(0%,0%,0%);stroke-opacity:1;stroke-miterlimit:10;" d="M 7.500078 0.500078 L 8.900078 0.500078 L 8.900078 2.500078 L 7.500078 2.500078 Z M 7.500078 0.500078 " transform="matrix(20,0,0,20,-8.9,-8.9)"/>
<path style="fill-rule:evenodd;fill:rgb(74.117649%,74.117649%,74.117649%);fill-opacity:1;stroke-width:0.05;stroke-linecap:butt;stroke-linejoin:miter;stroke:rgb(0%,0%,0%);stroke-opacity:1;stroke-miterlimit:10;" d="M 7.500078 2.500078 L 8.900078 2.500078 L 8.900078 4.500078 L 7.500078 4.500078 Z M 7.500078 2.500078 " transform="matrix(20,0,0,20,-8.9,-8.9)"/>
<path style="fill-rule:evenodd;fill:rgb(74.117649%,74.117649%,74.117649%);fill-opacity:1;stroke-width:0.05;stroke-linecap:butt;stroke-linejoin:miter;stroke:rgb(0%,0%,0%);stroke-opacity:1;stroke-miterlimit:10;" d="M 4.700078 4.500078 L 6.100078 4.500078 L 6.100078 6.500078 L 4.700078 6.500078 Z M 4.700078 4.500078 " transform="matrix(20,0,0,20,-8.9,-8.9)"/>
<path style="fill-rule:evenodd;fill:rgb(74.117649%,74.117649%,74.117649%);fill-opacity:1;stroke-width:0.05;stroke-linecap:butt;stroke-linejoin:miter;stroke:rgb(0%,0%,0%);stroke-opacity:1;stroke-miterlimit:10;" d="M 6.100078 4.500078 L 7.500078 4.500078 L 7.500078 6.500078 L 6.100078 6.500078 Z M 6.100078 4.500078 " transform="matrix(20,0,0,20,-8.9,-8.9)"/>
<path style="fill-rule:evenodd;fill:rgb(74.117649%,74.117649%,74.117649%);fill-opacity:1;stroke-width:0.05;stroke-linecap:butt;stroke-linejoin:miter;stroke:rgb(0%,0%,0%);stroke-opacity:1;stroke-miterlimit:10;" d="M 7.500078 4.500078 L 8.900078 4.500078 L 8.900078 6.500078 L 7.500078 6.500078 Z M 7.500078 4.500078 " transform="matrix(20,0,0,20,-8.9,-8.9)"/>
<path style="fill-rule:evenodd;fill:rgb(100%,100%,100%);fill-opacity:1;stroke-width:0.05;stroke-linecap:butt;stroke-linejoin:miter;stroke:rgb(0%,0%,0%);stroke-opacity:1;stroke-miterlimit:10;" d="M 8.900078 0.500078 L 10.300078 0.500078 L 10.300078 2.500078 L 8.900078 2.500078 Z M 8.900078 0.500078 " transform="matrix(20,0,0,20,-8.9,-8.9)"/>
<path style="fill-rule:evenodd;fill:rgb(74.117649%,74.117649%,74.117649%);fill-opacity:1;stroke-width:0.05;stroke-linecap:butt;stroke-linejoin:miter;stroke:rgb(0%,0%,0%);stroke-opacity:1;stroke-miterlimit:10;" d="M 8.900078 2.500078 L 10.300078 2.500078 L 10.300078 4.500078 L 8.900078 4.500078 Z M 8.900078 2.500078 " transform="matrix(20,0,0,20,-8.9,-8.9)"/>
<path style="fill-rule:evenodd;fill:rgb(100%,100%,100%);fill-opacity:1;stroke-width:0.05;stroke-linecap:butt;stroke-linejoin:miter;stroke:rgb(0%,0%,0%);stroke-opacity:1;stroke-miterlimit:10;" d="M 10.300078 0.500078 L 11.700078 0.500078 L 11.700078 2.500078 L 10.300078 2.500078 Z M 10.300078 0.500078 " transform="matrix(20,0,0,20,-8.9,-8.9)"/>
<path style="fill-rule:evenodd;fill:rgb(74.117649%,74.117649%,74.117649%);fill-opacity:1;stroke-width:0.05;stroke-linecap:butt;stroke-linejoin:miter;stroke:rgb(0%,0%,0%);stroke-opacity:1;stroke-miterlimit:10;" d="M 10.300078 2.500078 L 11.700078 2.500078 L 11.700078 4.500078 L 10.300078 4.500078 Z M 10.300078 2.500078 " transform="matrix(20,0,0,20,-8.9,-8.9)"/>
<path style="fill-rule:evenodd;fill:rgb(100%,100%,100%);fill-opacity:1;stroke-width:0.05;stroke-linecap:butt;stroke-linejoin:miter;stroke:rgb(0%,0%,0%);stroke-opacity:1;stroke-miterlimit:10;" d="M 11.700078 0.500078 L 13.100078 0.500078 L 13.100078 2.500078 L 11.700078 2.500078 Z M 11.700078 0.500078 " transform="matrix(20,0,0,20,-8.9,-8.9)"/>
<path style="fill-rule:evenodd;fill:rgb(100%,100%,100%);fill-opacity:1;stroke-width:0.05;stroke-linecap:butt;stroke-linejoin:miter;stroke:rgb(0%,0%,0%);stroke-opacity:1;stroke-miterlimit:10;" d="M 11.700078 2.500078 L 13.100078 2.500078 L 13.100078 4.500078 L 11.700078 4.500078 Z M 11.700078 2.500078 " transform="matrix(20,0,0,20,-8.9,-8.9)"/>
<path style="fill-rule:evenodd;fill:rgb(74.117649%,74.117649%,74.117649%);fill-opacity:1;stroke-width:0.05;stroke-linecap:butt;stroke-linejoin:miter;stroke:rgb(0%,0%,0%);stroke-opacity:1;stroke-miterlimit:10;" d="M 8.900078 4.500078 L 10.300078 4.500078 L 10.300078 6.500078 L 8.900078 6.500078 Z M 8.900078 4.500078 " transform="matrix(20,0,0,20,-8.9,-8.9)"/>
<path style="fill-rule:evenodd;fill:rgb(74.117649%,74.117649%,74.117649%);fill-opacity:1;stroke-width:0.05;stroke-linecap:butt;stroke-linejoin:miter;stroke:rgb(0%,0%,0%);stroke-opacity:1;stroke-miterlimit:10;" d="M 10.300078 4.500078 L 11.700078 4.500078 L 11.700078 6.500078 L 10.300078 6.500078 Z M 10.300078 4.500078 " transform="matrix(20,0,0,20,-8.9,-8.9)"/>
<path style="fill-rule:evenodd;fill:rgb(100%,100%,100%);fill-opacity:1;stroke-width:0.05;stroke-linecap:butt;stroke-linejoin:miter;stroke:rgb(0%,0%,0%);stroke-opacity:1;stroke-miterlimit:10;" d="M 11.700078 4.500078 L 13.100078 4.500078 L 13.100078 6.500078 L 11.700078 6.500078 Z M 11.700078 4.500078 " transform="matrix(20,0,0,20,-8.9,-8.9)"/>
<path style="fill-rule:evenodd;fill:rgb(100%,100%,100%);fill-opacity:1;stroke-width:0.05;stroke-linecap:butt;stroke-linejoin:miter;stroke:rgb(0%,0%,0%);stroke-opacity:1;stroke-miterlimit:10;" d="M 0.500078 6.500078 L 1.900078 6.500078 L 1.900078 8.500078 L 0.500078 8.500078 Z M 0.500078 6.500078 " transform="matrix(20,0,0,20,-8.9,-8.9)"/>
<path style="fill-rule:evenodd;fill:rgb(100%,100%,100%);fill-opacity:1;stroke-width:0.05;stroke-linecap:butt;stroke-linejoin:miter;stroke:rgb(0%,0%,0%);stroke-opacity:1;stroke-miterlimit:10;" d="M 0.500078 8.500078 L 1.900078 8.500078 L 1.900078 10.500078 L 0.500078 10.500078 Z M 0.500078 8.500078 " transform="matrix(20,0,0,20,-8.9,-8.9)"/>
<path style="fill-rule:evenodd;fill:rgb(100%,100%,100%);fill-opacity:1;stroke-width:0.05;stroke-linecap:butt;stroke-linejoin:miter;stroke:rgb(0%,0%,0%);stroke-opacity:1;stroke-miterlimit:10;" d="M 1.900078 6.500078 L 3.300078 6.500078 L 3.300078 8.500078 L 1.900078 8.500078 Z M 1.900078 6.500078 " transform="matrix(20,0,0,20,-8.9,-8.9)"/>
<path style="fill-rule:evenodd;fill:rgb(100%,100%,100%);fill-opacity:1;stroke-width:0.05;stroke-linecap:butt;stroke-linejoin:miter;stroke:rgb(0%,0%,0%);stroke-opacity:1;stroke-miterlimit:10;" d="M 1.900078 8.500078 L 3.300078 8.500078 L 3.300078 10.500078 L 1.900078 10.500078 Z M 1.900078 8.500078 " transform="matrix(20,0,0,20,-8.9,-8.9)"/>
<path style="fill-rule:evenodd;fill:rgb(74.117649%,74.117649%,74.117649%);fill-opacity:1;stroke-width:0.05;stroke-linecap:butt;stroke-linejoin:miter;stroke:rgb(0%,0%,0%);stroke-opacity:1;stroke-miterlimit:10;" d="M 3.300078 6.500078 L 4.700078 6.500078 L 4.700078 8.500078 L 3.300078 8.500078 Z M 3.300078 6.500078 " transform="matrix(20,0,0,20,-8.9,-8.9)"/>
<path style="fill-rule:evenodd;fill:rgb(74.117649%,74.117649%,74.117649%);fill-opacity:1;stroke-width:0.05;stroke-linecap:butt;stroke-linejoin:miter;stroke:rgb(0%,0%,0%);stroke-opacity:1;stroke-miterlimit:10;" d="M 3.300078 8.500078 L 4.700078 8.500078 L 4.700078 10.500078 L 3.300078 10.500078 Z M 3.300078 8.500078 " transform="matrix(20,0,0,20,-8.9,-8.9)"/>
<path style="fill-rule:evenodd;fill:rgb(100%,100%,100%);fill-opacity:1;stroke-width:0.05;stroke-linecap:butt;stroke-linejoin:miter;stroke:rgb(0%,0%,0%);stroke-opacity:1;stroke-miterlimit:10;" d="M 0.500078 10.500078 L 1.900078 10.500078 L 1.900078 12.500078 L 0.500078 12.500078 Z M 0.500078 10.500078 " transform="matrix(20,0,0,20,-8.9,-8.9)"/>
<path style="fill-rule:evenodd;fill:rgb(100%,100%,100%);fill-opacity:1;stroke-width:0.05;stroke-linecap:butt;stroke-linejoin:miter;stroke:rgb(0%,0%,0%);stroke-opacity:1;stroke-miterlimit:10;" d="M 1.900078 10.500078 L 3.300078 10.500078 L 3.300078 12.500078 L 1.900078 12.500078 Z M 1.900078 10.500078 " transform="matrix(20,0,0,20,-8.9,-8.9)"/>
<path style="fill-rule:evenodd;fill:rgb(74.117649%,74.117649%,74.117649%);fill-opacity:1;stroke-width:0.05;stroke-linecap:butt;stroke-linejoin:miter;stroke:rgb(0%,0%,0%);stroke-opacity:1;stroke-miterlimit:10;" d="M 3.300078 10.500078 L 4.700078 10.500078 L 4.700078 12.500078 L 3.300078 12.500078 Z M 3.300078 10.500078 " transform="matrix(20,0,0,20,-8.9,-8.9)"/>
<path style="fill-rule:evenodd;fill:rgb(74.117649%,74.117649%,74.117649%);fill-opacity:1;stroke-width:0.05;stroke-linecap:butt;stroke-linejoin:miter;stroke:rgb(0%,0%,0%);stroke-opacity:1;stroke-miterlimit:10;" d="M 4.700078 6.500078 L 6.100078 6.500078 L 6.100078 8.500078 L 4.700078 8.500078 Z M 4.700078 6.500078 " transform="matrix(20,0,0,20,-8.9,-8.9)"/>
<path style="fill-rule:evenodd;fill:rgb(74.117649%,74.117649%,74.117649%);fill-opacity:1;stroke-width:0.05;stroke-linecap:butt;stroke-linejoin:miter;stroke:rgb(0%,0%,0%);stroke-opacity:1;stroke-miterlimit:10;" d="M 4.700078 8.500078 L 6.100078 8.500078 L 6.100078 10.500078 L 4.700078 10.500078 Z M 4.700078 8.500078 " transform="matrix(20,0,0,20,-8.9,-8.9)"/>
<path style="fill-rule:evenodd;fill:rgb(74.117649%,74.117649%,74.117649%);fill-opacity:1;stroke-width:0.05;stroke-linecap:butt;stroke-linejoin:miter;stroke:rgb(0%,0%,0%);stroke-opacity:1;stroke-miterlimit:10;" d="M 6.100078 6.500078 L 7.500078 6.500078 L 7.500078 8.500078 L 6.100078 8.500078 Z M 6.100078 6.500078 " transform="matrix(20,0,0,20,-8.9,-8.9)"/>
<path style="fill-rule:evenodd;fill:rgb(74.117649%,74.117649%,74.117649%);fill-opacity:1;stroke-width:0.05;stroke-linecap:butt;stroke-linejoin:miter;stroke:rgb(0%,0%,0%);stroke-opacity:1;stroke-miterlimit:10;" d="M 6.100078 8.500078 L 7.500078 8.500078 L 7.500078 10.500078 L 6.100078 10.500078 Z M 6.100078 8.500078 " transform="matrix(20,0,0,20,-8.9,-8.9)"/>
<path style="fill-rule:evenodd;fill:rgb(74.117649%,74.117649%,74.117649%);fill-opacity:1;stroke-width:0.05;stroke-linecap:butt;stroke-linejoin:miter;stroke:rgb(0%,0%,0%);stroke-opacity:1;stroke-miterlimit:10;" d="M 7.500078 6.500078 L 8.900078 6.500078 L 8.900078 8.500078 L 7.500078 8.500078 Z M 7.500078 6.500078 " transform="matrix(20,0,0,20,-8.9,-8.9)"/>
<path style="fill-rule:evenodd;fill:rgb(74.117649%,74.117649%,74.117649%);fill-opacity:1;stroke-width:0.05;stroke-linecap:butt;stroke-linejoin:miter;stroke:rgb(0%,0%,0%);stroke-opacity:1;stroke-miterlimit:10;" d="M 7.500078 8.500078 L 8.900078 8.500078 L 8.900078 10.500078 L 7.500078 10.500078 Z M 7.500078 8.500078 " transform="matrix(20,0,0,20,-8.9,-8.9)"/>
<path style="fill-rule:evenodd;fill:rgb(74.117649%,74.117649%,74.117649%);fill-opacity:1;stroke-width:0.05;stroke-linecap:butt;stroke-linejoin:miter;stroke:rgb(0%,0%,0%);stroke-opacity:1;stroke-miterlimit:10;" d="M 4.700078 10.500078 L 6.100078 10.500078 L 6.100078 12.500078 L 4.700078 12.500078 Z M 4.700078 10.500078 " transform="matrix(20,0,0,20,-8.9,-8.9)"/>
<path style="fill-rule:evenodd;fill:rgb(74.117649%,74.117649%,74.117649%);fill-opacity:1;stroke-width:0.05;stroke-linecap:butt;stroke-linejoin:miter;stroke:rgb(0%,0%,0%);stroke-opacity:1;stroke-miterlimit:10;" d="M 6.100078 10.500078 L 7.500078 10.500078 L 7.500078 12.500078 L 6.100078 12.500078 Z M 6.100078 10.500078 " transform="matrix(20,0,0,20,-8.9,-8.9)"/>
<path style="fill-rule:evenodd;fill:rgb(74.117649%,74.117649%,74.117649%);fill-opacity:1;stroke-width:0.05;stroke-linecap:butt;stroke-linejoin:miter;stroke:rgb(0%,0%,0%);stroke-opacity:1;stroke-miterlimit:10;" d="M 7.500078 10.500078 L 8.900078 10.500078 L 8.900078 12.500078 L 7.500078 12.500078 Z M 7.500078 10.500078 " transform="matrix(20,0,0,20,-8.9,-8.9)"/>
<path style="fill-rule:evenodd;fill:rgb(74.117649%,74.117649%,74.117649%);fill-opacity:1;stroke-width:0.05;stroke-linecap:butt;stroke-linejoin:miter;stroke:rgb(0%,0%,0%);stroke-opacity:1;stroke-miterlimit:10;" d="M 8.900078 6.500078 L 10.300078 6.500078 L 10.300078 8.500078 L 8.900078 8.500078 Z M 8.900078 6.500078 " transform="matrix(20,0,0,20,-8.9,-8.9)"/>
<path style="fill-rule:evenodd;fill:rgb(74.117649%,74.117649%,74.117649%);fill-opacity:1;stroke-width:0.05;stroke-linecap:butt;stroke-linejoin:miter;stroke:rgb(0%,0%,0%);stroke-opacity:1;stroke-miterlimit:10;" d="M 8.900078 8.500078 L 10.300078 8.500078 L 10.300078 10.500078 L 8.900078 10.500078 Z M 8.900078 8.500078 " transform="matrix(20,0,0,20,-8.9,-8.9)"/>
<path style="fill-rule:evenodd;fill:rgb(74.117649%,74.117649%,74.117649%);fill-opacity:1;stroke-width:0.05;stroke-linecap:butt;stroke-linejoin:miter;stroke:rgb(0%,0%,0%);stroke-opacity:1;stroke-miterlimit:10;" d="M 10.300078 6.500078 L 11.700078 6.500078 L 11.700078 8.500078 L 10.300078 8.500078 Z M 10.300078 6.500078 " transform="matrix(20,0,0,20,-8.9,-8.9)"/>
<path style="fill-rule:evenodd;fill:rgb(74.117649%,74.117649%,74.117649%);fill-opacity:1;stroke-width:0.05;stroke-linecap:butt;stroke-linejoin:miter;stroke:rgb(0%,0%,0%);stroke-opacity:1;stroke-miterlimit:10;" d="M 10.300078 8.500078 L 11.700078 8.500078 L 11.700078 10.500078 L 10.300078 10.500078 Z M 10.300078 8.500078 " transform="matrix(20,0,0,20,-8.9,-8.9)"/>
<path style="fill-rule:evenodd;fill:rgb(100%,100%,100%);fill-opacity:1;stroke-width:0.05;stroke-linecap:butt;stroke-linejoin:miter;stroke:rgb(0%,0%,0%);stroke-opacity:1;stroke-miterlimit:10;" d="M 11.700078 6.500078 L 13.100078 6.500078 L 13.100078 8.500078 L 11.700078 8.500078 Z M 11.700078 6.500078 " transform="matrix(20,0,0,20,-8.9,-8.9)"/>
<path style="fill-rule:evenodd;fill:rgb(100%,100%,100%);fill-opacity:1;stroke-width:0.05;stroke-linecap:butt;stroke-linejoin:miter;stroke:rgb(0%,0%,0%);stroke-opacity:1;stroke-miterlimit:10;" d="M 11.700078 8.500078 L 13.100078 8.500078 L 13.100078 10.500078 L 11.700078 10.500078 Z M 11.700078 8.500078 " transform="matrix(20,0,0,20,-8.9,-8.9)"/>
<path style="fill-rule:evenodd;fill:rgb(74.117649%,74.117649%,74.117649%);fill-opacity:1;stroke-width:0.05;stroke-linecap:butt;stroke-linejoin:miter;stroke:rgb(0%,0%,0%);stroke-opacity:1;stroke-miterlimit:10;" d="M 8.900078 10.500078 L 10.300078 10.500078 L 10.300078 12.500078 L 8.900078 12.500078 Z M 8.900078 10.500078 " transform="matrix(20,0,0,20,-8.9,-8.9)"/>
<path style="fill-rule:evenodd;fill:rgb(74.117649%,74.117649%,74.117649%);fill-opacity:1;stroke-width:0.05;stroke-linecap:butt;stroke-linejoin:miter;stroke:rgb(0%,0%,0%);stroke-opacity:1;stroke-miterlimit:10;" d="M 10.300078 10.500078 L 11.700078 10.500078 L 11.700078 12.500078 L 10.300078 12.500078 Z M 10.300078 10.500078 " transform="matrix(20,0,0,20,-8.9,-8.9)"/>
<path style="fill-rule:evenodd;fill:rgb(100%,100%,100%);fill-opacity:1;stroke-width:0.05;stroke-linecap:butt;stroke-linejoin:miter;stroke:rgb(0%,0%,0%);stroke-opacity:1;stroke-miterlimit:10;" d="M 11.700078 10.500078 L 13.100078 10.500078 L 13.100078 12.500078 L 11.700078 12.500078 Z M 11.700078 10.500078 " transform="matrix(20,0,0,20,-8.9,-8.9)"/>
<path style="fill-rule:evenodd;fill:rgb(100%,100%,100%);fill-opacity:1;stroke-width:0.05;stroke-linecap:butt;stroke-linejoin:miter;stroke:rgb(0%,0%,0%);stroke-opacity:1;stroke-miterlimit:10;" d="M 0.500078 12.500078 L 1.900078 12.500078 L 1.900078 14.500078 L 0.500078 14.500078 Z M 0.500078 12.500078 " transform="matrix(20,0,0,20,-8.9,-8.9)"/>
<path style="fill-rule:evenodd;fill:rgb(100%,100%,100%);fill-opacity:1;stroke-width:0.05;stroke-linecap:butt;stroke-linejoin:miter;stroke:rgb(0%,0%,0%);stroke-opacity:1;stroke-miterlimit:10;" d="M 0.500078 14.500078 L 1.900078 14.500078 L 1.900078 16.500078 L 0.500078 16.500078 Z M 0.500078 14.500078 " transform="matrix(20,0,0,20,-8.9,-8.9)"/>
<path style="fill-rule:evenodd;fill:rgb(100%,100%,100%);fill-opacity:1;stroke-width:0.05;stroke-linecap:butt;stroke-linejoin:miter;stroke:rgb(0%,0%,0%);stroke-opacity:1;stroke-miterlimit:10;" d="M 1.900078 12.500078 L 3.300078 12.500078 L 3.300078 14.500078 L 1.900078 14.500078 Z M 1.900078 12.500078 " transform="matrix(20,0,0,20,-8.9,-8.9)"/>
<path style="fill-rule:evenodd;fill:rgb(100%,100%,100%);fill-opacity:1;stroke-width:0.05;stroke-linecap:butt;stroke-linejoin:miter;stroke:rgb(0%,0%,0%);stroke-opacity:1;stroke-miterlimit:10;" d="M 1.900078 14.500078 L 3.300078 14.500078 L 3.300078 16.500078 L 1.900078 16.500078 Z M 1.900078 14.500078 " transform="matrix(20,0,0,20,-8.9,-8.9)"/>
<path style="fill-rule:evenodd;fill:rgb(74.117649%,74.117649%,74.117649%);fill-opacity:1;stroke-width:0.05;stroke-linecap:butt;stroke-linejoin:miter;stroke:rgb(0%,0%,0%);stroke-opacity:1;stroke-miterlimit:10;" d="M 3.300078 12.500078 L 4.700078 12.500078 L 4.700078 14.500078 L 3.300078 14.500078 Z M 3.300078 12.500078 " transform="matrix(20,0,0,20,-8.9,-8.9)"/>
<path style="fill-rule:evenodd;fill:rgb(100%,100%,100%);fill-opacity:1;stroke-width:0.05;stroke-linecap:butt;stroke-linejoin:miter;stroke:rgb(0%,0%,0%);stroke-opacity:1;stroke-miterlimit:10;" d="M 3.300078 14.500078 L 4.700078 14.500078 L 4.700078 16.500078 L 3.300078 16.500078 Z M 3.300078 14.500078 " transform="matrix(20,0,0,20,-8.9,-8.9)"/>
<path style="fill-rule:evenodd;fill:rgb(100%,100%,100%);fill-opacity:1;stroke-width:0.05;stroke-linecap:butt;stroke-linejoin:miter;stroke:rgb(0%,0%,0%);stroke-opacity:1;stroke-miterlimit:10;" d="M 0.500078 16.500078 L 1.900078 16.500078 L 1.900078 18.500078 L 0.500078 18.500078 Z M 0.500078 16.500078 " transform="matrix(20,0,0,20,-8.9,-8.9)"/>
<path style="fill-rule:evenodd;fill:rgb(100%,100%,100%);fill-opacity:1;stroke-width:0.05;stroke-linecap:butt;stroke-linejoin:miter;stroke:rgb(0%,0%,0%);stroke-opacity:1;stroke-miterlimit:10;" d="M 1.900078 16.500078 L 3.300078 16.500078 L 3.300078 18.500078 L 1.900078 18.500078 Z M 1.900078 16.500078 " transform="matrix(20,0,0,20,-8.9,-8.9)"/>
<path style="fill-rule:evenodd;fill:rgb(100%,100%,100%);fill-opacity:1;stroke-width:0.05;stroke-linecap:butt;stroke-linejoin:miter;stroke:rgb(0%,0%,0%);stroke-opacity:1;stroke-miterlimit:10;" d="M 3.300078 16.500078 L 4.700078 16.500078 L 4.700078 18.500078 L 3.300078 18.500078 Z M 3.300078 16.500078 " transform="matrix(20,0,0,20,-8.9,-8.9)"/>
<path style="fill-rule:evenodd;fill:rgb(74.117649%,74.117649%,74.117649%);fill-opacity:1;stroke-width:0.05;stroke-linecap:butt;stroke-linejoin:miter;stroke:rgb(0%,0%,0%);stroke-opacity:1;stroke-miterlimit:10;" d="M 4.700078 12.500078 L 6.100078 12.500078 L 6.100078 14.500078 L 4.700078 14.500078 Z M 4.700078 12.500078 " transform="matrix(20,0,0,20,-8.9,-8.9)"/>
<path style="fill-rule:evenodd;fill:rgb(100%,100%,100%);fill-opacity:1;stroke-width:0.05;stroke-linecap:butt;stroke-linejoin:miter;stroke:rgb(0%,0%,0%);stroke-opacity:1;stroke-miterlimit:10;" d="M 4.700078 14.500078 L 6.100078 14.500078 L 6.100078 16.500078 L 4.700078 16.500078 Z M 4.700078 14.500078 " transform="matrix(20,0,0,20,-8.9,-8.9)"/>
<path style="fill-rule:evenodd;fill:rgb(74.117649%,74.117649%,74.117649%);fill-opacity:1;stroke-width:0.05;stroke-linecap:butt;stroke-linejoin:miter;stroke:rgb(0%,0%,0%);stroke-opacity:1;stroke-miterlimit:10;" d="M 6.100078 12.500078 L 7.500078 12.500078 L 7.500078 14.500078 L 6.100078 14.500078 Z M 6.100078 12.500078 " transform="matrix(20,0,0,20,-8.9,-8.9)"/>
<path style="fill-rule:evenodd;fill:rgb(100%,100%,100%);fill-opacity:1;stroke-width:0.05;stroke-linecap:butt;stroke-linejoin:miter;stroke:rgb(0%,0%,0%);stroke-opacity:1;stroke-miterlimit:10;" d="M 6.100078 14.500078 L 7.500078 14.500078 L 7.500078 16.500078 L 6.100078 16.500078 Z M 6.100078 14.500078 " transform="matrix(20,0,0,20,-8.9,-8.9)"/>
<path style="fill-rule:evenodd;fill:rgb(74.117649%,74.117649%,74.117649%);fill-opacity:1;stroke-width:0.05;stroke-linecap:butt;stroke-linejoin:miter;stroke:rgb(0%,0%,0%);stroke-opacity:1;stroke-miterlimit:10;" d="M 7.500078 12.500078 L 8.900078 12.500078 L 8.900078 14.500078 L 7.500078 14.500078 Z M 7.500078 12.500078 " transform="matrix(20,0,0,20,-8.9,-8.9)"/>
<path style="fill-rule:evenodd;fill:rgb(100%,100%,100%);fill-opacity:1;stroke-width:0.05;stroke-linecap:butt;stroke-linejoin:miter;stroke:rgb(0%,0%,0%);stroke-opacity:1;stroke-miterlimit:10;" d="M 7.500078 14.500078 L 8.900078 14.500078 L 8.900078 16.500078 L 7.500078 16.500078 Z M 7.500078 14.500078 " transform="matrix(20,0,0,20,-8.9,-8.9)"/>
<path style="fill-rule:evenodd;fill:rgb(100%,100%,100%);fill-opacity:1;stroke-width:0.05;stroke-linecap:butt;stroke-linejoin:miter;stroke:rgb(0%,0%,0%);stroke-opacity:1;stroke-miterlimit:10;" d="M 4.700078 16.500078 L 6.100078 16.500078 L 6.100078 18.500078 L 4.700078 18.500078 Z M 4.700078 16.500078 " transform="matrix(20,0,0,20,-8.9,-8.9)"/>
<path style="fill-rule:evenodd;fill:rgb(100%,100%,100%);fill-opacity:1;stroke-width:0.05;stroke-linecap:butt;stroke-linejoin:miter;stroke:rgb(0%,0%,0%);stroke-opacity:1;stroke-miterlimit:10;" d="M 6.100078 16.500078 L 7.500078 16.500078 L 7.500078 18.500078 L 6.100078 18.500078 Z M 6.100078 16.500078 " transform="matrix(20,0,0,20,-8.9,-8.9)"/>
<path style="fill-rule:evenodd;fill:rgb(100%,100%,100%);fill-opacity:1;stroke-width:0.05;stroke-linecap:butt;stroke-linejoin:miter;stroke:rgb(0%,0%,0%);stroke-opacity:1;stroke-miterlimit:10;" d="M 7.500078 16.500078 L 8.900078 16.500078 L 8.900078 18.500078 L 7.500078 18.500078 Z M 7.500078 16.500078 " transform="matrix(20,0,0,20,-8.9,-8.9)"/>
<path style="fill-rule:evenodd;fill:rgb(74.117649%,74.117649%,74.117649%);fill-opacity:1;stroke-width:0.05;stroke-linecap:butt;stroke-linejoin:miter;stroke:rgb(0%,0%,0%);stroke-opacity:1;stroke-miterlimit:10;" d="M 8.900078 12.500078 L 10.300078 12.500078 L 10.300078 14.500078 L 8.900078 14.500078 Z M 8.900078 12.500078 " transform="matrix(20,0,0,20,-8.9,-8.9)"/>
<path style="fill-rule:evenodd;fill:rgb(100%,100%,100%);fill-opacity:1;stroke-width:0.05;stroke-linecap:butt;stroke-linejoin:miter;stroke:rgb(0%,0%,0%);stroke-opacity:1;stroke-miterlimit:10;" d="M 8.900078 14.500078 L 10.300078 14.500078 L 10.300078 16.500078 L 8.900078 16.500078 Z M 8.900078 14.500078 " transform="matrix(20,0,0,20,-8.9,-8.9)"/>
<path style="fill-rule:evenodd;fill:rgb(74.117649%,74.117649%,74.117649%);fill-opacity:1;stroke-width:0.05;stroke-linecap:butt;stroke-linejoin:miter;stroke:rgb(0%,0%,0%);stroke-opacity:1;stroke-miterlimit:10;" d="M 10.300078 12.500078 L 11.700078 12.500078 L 11.700078 14.500078 L 10.300078 14.500078 Z M 10.300078 12.500078 " transform="matrix(20,0,0,20,-8.9,-8.9)"/>
<path style="fill-rule:evenodd;fill:rgb(100%,100%,100%);fill-opacity:1;stroke-width:0.05;stroke-linecap:butt;stroke-linejoin:miter;stroke:rgb(0%,0%,0%);stroke-opacity:1;stroke-miterlimit:10;" d="M 10.300078 14.500078 L 11.700078 14.500078 L 11.700078 16.500078 L 10.300078 16.500078 Z M 10.300078 14.500078 " transform="matrix(20,0,0,20,-8.9,-8.9)"/>
<path style="fill-rule:evenodd;fill:rgb(100%,100%,100%);fill-opacity:1;stroke-width:0.05;stroke-linecap:butt;stroke-linejoin:miter;stroke:rgb(0%,0%,0%);stroke-opacity:1;stroke-miterlimit:10;" d="M 11.700078 12.500078 L 13.100078 12.500078 L 13.100078 14.500078 L 11.700078 14.500078 Z M 11.700078 12.500078 " transform="matrix(20,0,0,20,-8.9,-8.9)"/>
<path style="fill-rule:evenodd;fill:rgb(100%,100%,100%);fill-opacity:1;stroke-width:0.05;stroke-linecap:butt;stroke-linejoin:miter;stroke:rgb(0%,0%,0%);stroke-opacity:1;stroke-miterlimit:10;" d="M 11.700078 14.500078 L 13.100078 14.500078 L 13.100078 16.500078 L 11.700078 16.500078 Z M 11.700078 14.500078 " transform="matrix(20,0,0,20,-8.9,-8.9)"/>
<path style="fill-rule:evenodd;fill:rgb(100%,100%,100%);fill-opacity:1;stroke-width:0.05;stroke-linecap:butt;stroke-linejoin:miter;stroke:rgb(0%,0%,0%);stroke-opacity:1;stroke-miterlimit:10;" d="M 8.900078 16.500078 L 10.300078 16.500078 L 10.300078 18.500078 L 8.900078 18.500078 Z M 8.900078 16.500078 " transform="matrix(20,0,0,20,-8.9,-8.9)"/>
<path style="fill-rule:evenodd;fill:rgb(100%,100%,100%);fill-opacity:1;stroke-width:0.05;stroke-linecap:butt;stroke-linejoin:miter;stroke:rgb(0%,0%,0%);stroke-opacity:1;stroke-miterlimit:10;" d="M 10.300078 16.500078 L 11.700078 16.500078 L 11.700078 18.500078 L 10.300078 18.500078 Z M 10.300078 16.500078 " transform="matrix(20,0,0,20,-8.9,-8.9)"/>
<path style="fill-rule:evenodd;fill:rgb(100%,100%,100%);fill-opacity:1;stroke-width:0.05;stroke-linecap:butt;stroke-linejoin:miter;stroke:rgb(0%,0%,0%);stroke-opacity:1;stroke-miterlimit:10;" d="M 11.700078 16.500078 L 13.100078 16.500078 L 13.100078 18.500078 L 11.700078 18.500078 Z M 11.700078 16.500078 " transform="matrix(20,0,0,20,-8.9,-8.9)"/>
<path style="fill-rule:evenodd;fill:rgb(100%,100%,100%);fill-opacity:1;stroke-width:0.05;stroke-linecap:butt;stroke-linejoin:miter;stroke:rgb(0%,0%,0%);stroke-opacity:1;stroke-miterlimit:10;" d="M 14.500078 0.500078 L 15.900078 0.500078 L 15.900078 2.500078 L 14.500078 2.500078 Z M 14.500078 0.500078 " transform="matrix(20,0,0,20,-8.9,-8.9)"/>
<path style="fill-rule:evenodd;fill:rgb(100%,100%,100%);fill-opacity:1;stroke-width:0.05;stroke-linecap:butt;stroke-linejoin:miter;stroke:rgb(0%,0%,0%);stroke-opacity:1;stroke-miterlimit:10;" d="M 14.500078 2.500078 L 15.900078 2.500078 L 15.900078 4.500078 L 14.500078 4.500078 Z M 14.500078 2.500078 " transform="matrix(20,0,0,20,-8.9,-8.9)"/>
<path style="fill-rule:evenodd;fill:rgb(100%,100%,100%);fill-opacity:1;stroke-width:0.05;stroke-linecap:butt;stroke-linejoin:miter;stroke:rgb(0%,0%,0%);stroke-opacity:1;stroke-miterlimit:10;" d="M 15.900078 0.500078 L 17.300078 0.500078 L 17.300078 2.500078 L 15.900078 2.500078 Z M 15.900078 0.500078 " transform="matrix(20,0,0,20,-8.9,-8.9)"/>
<path style="fill-rule:evenodd;fill:rgb(74.117649%,74.117649%,74.117649%);fill-opacity:1;stroke-width:0.05;stroke-linecap:butt;stroke-linejoin:miter;stroke:rgb(0%,0%,0%);stroke-opacity:1;stroke-miterlimit:10;" d="M 15.900078 2.500078 L 17.300078 2.500078 L 17.300078 4.500078 L 15.900078 4.500078 Z M 15.900078 2.500078 " transform="matrix(20,0,0,20,-8.9,-8.9)"/>
<path style="fill-rule:evenodd;fill:rgb(100%,100%,100%);fill-opacity:1;stroke-width:0.05;stroke-linecap:butt;stroke-linejoin:miter;stroke:rgb(0%,0%,0%);stroke-opacity:1;stroke-miterlimit:10;" d="M 17.300078 0.500078 L 18.700078 0.500078 L 18.700078 2.500078 L 17.300078 2.500078 Z M 17.300078 0.500078 " transform="matrix(20,0,0,20,-8.9,-8.9)"/>
<path style="fill-rule:evenodd;fill:rgb(74.117649%,74.117649%,74.117649%);fill-opacity:1;stroke-width:0.05;stroke-linecap:butt;stroke-linejoin:miter;stroke:rgb(0%,0%,0%);stroke-opacity:1;stroke-miterlimit:10;" d="M 17.300078 2.500078 L 18.700078 2.500078 L 18.700078 4.500078 L 17.300078 4.500078 Z M 17.300078 2.500078 " transform="matrix(20,0,0,20,-8.9,-8.9)"/>
<path style="fill-rule:evenodd;fill:rgb(100%,100%,100%);fill-opacity:1;stroke-width:0.05;stroke-linecap:butt;stroke-linejoin:miter;stroke:rgb(0%,0%,0%);stroke-opacity:1;stroke-miterlimit:10;" d="M 14.500078 4.500078 L 15.900078 4.500078 L 15.900078 6.500078 L 14.500078 6.500078 Z M 14.500078 4.500078 " transform="matrix(20,0,0,20,-8.9,-8.9)"/>
<path style="fill-rule:evenodd;fill:rgb(74.117649%,74.117649%,74.117649%);fill-opacity:1;stroke-width:0.05;stroke-linecap:butt;stroke-linejoin:miter;stroke:rgb(0%,0%,0%);stroke-opacity:1;stroke-miterlimit:10;" d="M 15.900078 4.500078 L 17.300078 4.500078 L 17.300078 6.500078 L 15.900078 6.500078 Z M 15.900078 4.500078 " transform="matrix(20,0,0,20,-8.9,-8.9)"/>
<path style="fill-rule:evenodd;fill:rgb(74.117649%,74.117649%,74.117649%);fill-opacity:1;stroke-width:0.05;stroke-linecap:butt;stroke-linejoin:miter;stroke:rgb(0%,0%,0%);stroke-opacity:1;stroke-miterlimit:10;" d="M 17.300078 4.500078 L 18.700078 4.500078 L 18.700078 6.500078 L 17.300078 6.500078 Z M 17.300078 4.500078 " transform="matrix(20,0,0,20,-8.9,-8.9)"/>
<path style="fill-rule:evenodd;fill:rgb(100%,100%,100%);fill-opacity:1;stroke-width:0.05;stroke-linecap:butt;stroke-linejoin:miter;stroke:rgb(0%,0%,0%);stroke-opacity:1;stroke-miterlimit:10;" d="M 18.700078 0.500078 L 20.100078 0.500078 L 20.100078 2.500078 L 18.700078 2.500078 Z M 18.700078 0.500078 " transform="matrix(20,0,0,20,-8.9,-8.9)"/>
<path style="fill-rule:evenodd;fill:rgb(74.117649%,74.117649%,74.117649%);fill-opacity:1;stroke-width:0.05;stroke-linecap:butt;stroke-linejoin:miter;stroke:rgb(0%,0%,0%);stroke-opacity:1;stroke-miterlimit:10;" d="M 18.700078 2.500078 L 20.100078 2.500078 L 20.100078 4.500078 L 18.700078 4.500078 Z M 18.700078 2.500078 " transform="matrix(20,0,0,20,-8.9,-8.9)"/>
<path style="fill-rule:evenodd;fill:rgb(100%,100%,100%);fill-opacity:1;stroke-width:0.05;stroke-linecap:butt;stroke-linejoin:miter;stroke:rgb(0%,0%,0%);stroke-opacity:1;stroke-miterlimit:10;" d="M 20.100078 0.500078 L 21.500078 0.500078 L 21.500078 2.500078 L 20.100078 2.500078 Z M 20.100078 0.500078 " transform="matrix(20,0,0,20,-8.9,-8.9)"/>
<path style="fill-rule:evenodd;fill:rgb(74.117649%,74.117649%,74.117649%);fill-opacity:1;stroke-width:0.05;stroke-linecap:butt;stroke-linejoin:miter;stroke:rgb(0%,0%,0%);stroke-opacity:1;stroke-miterlimit:10;" d="M 20.100078 2.500078 L 21.500078 2.500078 L 21.500078 4.500078 L 20.100078 4.500078 Z M 20.100078 2.500078 " transform="matrix(20,0,0,20,-8.9,-8.9)"/>
<path style="fill-rule:evenodd;fill:rgb(100%,100%,100%);fill-opacity:1;stroke-width:0.05;stroke-linecap:butt;stroke-linejoin:miter;stroke:rgb(0%,0%,0%);stroke-opacity:1;stroke-miterlimit:10;" d="M 21.500078 0.500078 L 22.900078 0.500078 L 22.900078 2.500078 L 21.500078 2.500078 Z M 21.500078 0.500078 " transform="matrix(20,0,0,20,-8.9,-8.9)"/>
<path style="fill-rule:evenodd;fill:rgb(74.117649%,74.117649%,74.117649%);fill-opacity:1;stroke-width:0.05;stroke-linecap:butt;stroke-linejoin:miter;stroke:rgb(0%,0%,0%);stroke-opacity:1;stroke-miterlimit:10;" d="M 21.500078 2.500078 L 22.900078 2.500078 L 22.900078 4.500078 L 21.500078 4.500078 Z M 21.500078 2.500078 " transform="matrix(20,0,0,20,-8.9,-8.9)"/>
<path style="fill-rule:evenodd;fill:rgb(74.117649%,74.117649%,74.117649%);fill-opacity:1;stroke-width:0.05;stroke-linecap:butt;stroke-linejoin:miter;stroke:rgb(0%,0%,0%);stroke-opacity:1;stroke-miterlimit:10;" d="M 18.700078 4.500078 L 20.100078 4.500078 L 20.100078 6.500078 L 18.700078 6.500078 Z M 18.700078 4.500078 " transform="matrix(20,0,0,20,-8.9,-8.9)"/>
<path style="fill-rule:evenodd;fill:rgb(74.117649%,74.117649%,74.117649%);fill-opacity:1;stroke-width:0.05;stroke-linecap:butt;stroke-linejoin:miter;stroke:rgb(0%,0%,0%);stroke-opacity:1;stroke-miterlimit:10;" d="M 20.100078 4.500078 L 21.500078 4.500078 L 21.500078 6.500078 L 20.100078 6.500078 Z M 20.100078 4.500078 " transform="matrix(20,0,0,20,-8.9,-8.9)"/>
<path style="fill-rule:evenodd;fill:rgb(74.117649%,74.117649%,74.117649%);fill-opacity:1;stroke-width:0.05;stroke-linecap:butt;stroke-linejoin:miter;stroke:rgb(0%,0%,0%);stroke-opacity:1;stroke-miterlimit:10;" d="M 21.500078 4.500078 L 22.900078 4.500078 L 22.900078 6.500078 L 21.500078 6.500078 Z M 21.500078 4.500078 " transform="matrix(20,0,0,20,-8.9,-8.9)"/>
<path style="fill-rule:evenodd;fill:rgb(100%,100%,100%);fill-opacity:1;stroke-width:0.05;stroke-linecap:butt;stroke-linejoin:miter;stroke:rgb(0%,0%,0%);stroke-opacity:1;stroke-miterlimit:10;" d="M 22.900078 0.500078 L 24.300078 0.500078 L 24.300078 2.500078 L 22.900078 2.500078 Z M 22.900078 0.500078 " transform="matrix(20,0,0,20,-8.9,-8.9)"/>
<path style="fill-rule:evenodd;fill:rgb(74.117649%,74.117649%,74.117649%);fill-opacity:1;stroke-width:0.05;stroke-linecap:butt;stroke-linejoin:miter;stroke:rgb(0%,0%,0%);stroke-opacity:1;stroke-miterlimit:10;" d="M 22.900078 2.500078 L 24.300078 2.500078 L 24.300078 4.500078 L 22.900078 4.500078 Z M 22.900078 2.500078 " transform="matrix(20,0,0,20,-8.9,-8.9)"/>
<path style="fill-rule:evenodd;fill:rgb(100%,100%,100%);fill-opacity:1;stroke-width:0.05;stroke-linecap:butt;stroke-linejoin:miter;stroke:rgb(0%,0%,0%);stroke-opacity:1;stroke-miterlimit:10;" d="M 24.300078 0.500078 L 25.700078 0.500078 L 25.700078 2.500078 L 24.300078 2.500078 Z M 24.300078 0.500078 " transform="matrix(20,0,0,20,-8.9,-8.9)"/>
<path style="fill-rule:evenodd;fill:rgb(100%,100%,100%);fill-opacity:1;stroke-width:0.05;stroke-linecap:butt;stroke-linejoin:miter;stroke:rgb(0%,0%,0%);stroke-opacity:1;stroke-miterlimit:10;" d="M 24.300078 2.500078 L 25.700078 2.500078 L 25.700078 4.500078 L 24.300078 4.500078 Z M 24.300078 2.500078 " transform="matrix(20,0,0,20,-8.9,-8.9)"/>
<path style="fill-rule:evenodd;fill:rgb(100%,100%,100%);fill-opacity:1;stroke-width:0.05;stroke-linecap:butt;stroke-linejoin:miter;stroke:rgb(0%,0%,0%);stroke-opacity:1;stroke-miterlimit:10;" d="M 25.700078 0.500078 L 27.100078 0.500078 L 27.100078 2.500078 L 25.700078 2.500078 Z M 25.700078 0.500078 " transform="matrix(20,0,0,20,-8.9,-8.9)"/>
<path style="fill-rule:evenodd;fill:rgb(100%,100%,100%);fill-opacity:1;stroke-width:0.05;stroke-linecap:butt;stroke-linejoin:miter;stroke:rgb(0%,0%,0%);stroke-opacity:1;stroke-miterlimit:10;" d="M 25.700078 2.500078 L 27.100078 2.500078 L 27.100078 4.500078 L 25.700078 4.500078 Z M 25.700078 2.500078 " transform="matrix(20,0,0,20,-8.9,-8.9)"/>
<path style="fill-rule:evenodd;fill:rgb(74.117649%,74.117649%,74.117649%);fill-opacity:1;stroke-width:0.05;stroke-linecap:butt;stroke-linejoin:miter;stroke:rgb(0%,0%,0%);stroke-opacity:1;stroke-miterlimit:10;" d="M 22.900078 4.500078 L 24.300078 4.500078 L 24.300078 6.500078 L 22.900078 6.500078 Z M 22.900078 4.500078 " transform="matrix(20,0,0,20,-8.9,-8.9)"/>
<path style="fill-rule:evenodd;fill:rgb(100%,100%,100%);fill-opacity:1;stroke-width:0.05;stroke-linecap:butt;stroke-linejoin:miter;stroke:rgb(0%,0%,0%);stroke-opacity:1;stroke-miterlimit:10;" d="M 24.300078 4.500078 L 25.700078 4.500078 L 25.700078 6.500078 L 24.300078 6.500078 Z M 24.300078 4.500078 " transform="matrix(20,0,0,20,-8.9,-8.9)"/>
<path style="fill-rule:evenodd;fill:rgb(100%,100%,100%);fill-opacity:1;stroke-width:0.05;stroke-linecap:butt;stroke-linejoin:miter;stroke:rgb(0%,0%,0%);stroke-opacity:1;stroke-miterlimit:10;" d="M 25.700078 4.500078 L 27.100078 4.500078 L 27.100078 6.500078 L 25.700078 6.500078 Z M 25.700078 4.500078 " transform="matrix(20,0,0,20,-8.9,-8.9)"/>
<path style="fill-rule:evenodd;fill:rgb(100%,100%,100%);fill-opacity:1;stroke-width:0.05;stroke-linecap:butt;stroke-linejoin:miter;stroke:rgb(0%,0%,0%);stroke-opacity:1;stroke-miterlimit:10;" d="M 14.500078 6.500078 L 15.900078 6.500078 L 15.900078 8.500078 L 14.500078 8.500078 Z M 14.500078 6.500078 " transform="matrix(20,0,0,20,-8.9,-8.9)"/>
<path style="fill-rule:evenodd;fill:rgb(100%,100%,100%);fill-opacity:1;stroke-width:0.05;stroke-linecap:butt;stroke-linejoin:miter;stroke:rgb(0%,0%,0%);stroke-opacity:1;stroke-miterlimit:10;" d="M 14.500078 8.500078 L 15.900078 8.500078 L 15.900078 10.500078 L 14.500078 10.500078 Z M 14.500078 8.500078 " transform="matrix(20,0,0,20,-8.9,-8.9)"/>
<path style="fill-rule:evenodd;fill:rgb(74.117649%,74.117649%,74.117649%);fill-opacity:1;stroke-width:0.05;stroke-linecap:butt;stroke-linejoin:miter;stroke:rgb(0%,0%,0%);stroke-opacity:1;stroke-miterlimit:10;" d="M 15.900078 6.500078 L 17.300078 6.500078 L 17.300078 8.500078 L 15.900078 8.500078 Z M 15.900078 6.500078 " transform="matrix(20,0,0,20,-8.9,-8.9)"/>
<path style="fill-rule:evenodd;fill:rgb(74.117649%,74.117649%,74.117649%);fill-opacity:1;stroke-width:0.05;stroke-linecap:butt;stroke-linejoin:miter;stroke:rgb(0%,0%,0%);stroke-opacity:1;stroke-miterlimit:10;" d="M 15.900078 8.500078 L 17.300078 8.500078 L 17.300078 10.500078 L 15.900078 10.500078 Z M 15.900078 8.500078 " transform="matrix(20,0,0,20,-8.9,-8.9)"/>
<path style="fill-rule:evenodd;fill:rgb(74.117649%,74.117649%,74.117649%);fill-opacity:1;stroke-width:0.05;stroke-linecap:butt;stroke-linejoin:miter;stroke:rgb(0%,0%,0%);stroke-opacity:1;stroke-miterlimit:10;" d="M 17.300078 6.500078 L 18.700078 6.500078 L 18.700078 8.500078 L 17.300078 8.500078 Z M 17.300078 6.500078 " transform="matrix(20,0,0,20,-8.9,-8.9)"/>
<path style="fill-rule:evenodd;fill:rgb(74.117649%,74.117649%,74.117649%);fill-opacity:1;stroke-width:0.05;stroke-linecap:butt;stroke-linejoin:miter;stroke:rgb(0%,0%,0%);stroke-opacity:1;stroke-miterlimit:10;" d="M 17.300078 8.500078 L 18.700078 8.500078 L 18.700078 10.500078 L 17.300078 10.500078 Z M 17.300078 8.500078 " transform="matrix(20,0,0,20,-8.9,-8.9)"/>
<path style="fill-rule:evenodd;fill:rgb(100%,100%,100%);fill-opacity:1;stroke-width:0.05;stroke-linecap:butt;stroke-linejoin:miter;stroke:rgb(0%,0%,0%);stroke-opacity:1;stroke-miterlimit:10;" d="M 14.500078 10.500078 L 15.900078 10.500078 L 15.900078 12.500078 L 14.500078 12.500078 Z M 14.500078 10.500078 " transform="matrix(20,0,0,20,-8.9,-8.9)"/>
<path style="fill-rule:evenodd;fill:rgb(74.117649%,74.117649%,74.117649%);fill-opacity:1;stroke-width:0.05;stroke-linecap:butt;stroke-linejoin:miter;stroke:rgb(0%,0%,0%);stroke-opacity:1;stroke-miterlimit:10;" d="M 15.900078 10.500078 L 17.300078 10.500078 L 17.300078 12.500078 L 15.900078 12.500078 Z M 15.900078 10.500078 " transform="matrix(20,0,0,20,-8.9,-8.9)"/>
<path style="fill-rule:evenodd;fill:rgb(74.117649%,74.117649%,74.117649%);fill-opacity:1;stroke-width:0.05;stroke-linecap:butt;stroke-linejoin:miter;stroke:rgb(0%,0%,0%);stroke-opacity:1;stroke-miterlimit:10;" d="M 17.300078 10.500078 L 18.700078 10.500078 L 18.700078 12.500078 L 17.300078 12.500078 Z M 17.300078 10.500078 " transform="matrix(20,0,0,20,-8.9,-8.9)"/>
<path style="fill-rule:evenodd;fill:rgb(74.117649%,74.117649%,74.117649%);fill-opacity:1;stroke-width:0.05;stroke-linecap:butt;stroke-linejoin:miter;stroke:rgb(0%,0%,0%);stroke-opacity:1;stroke-miterlimit:10;" d="M 18.700078 6.500078 L 20.100078 6.500078 L 20.100078 8.500078 L 18.700078 8.500078 Z M 18.700078 6.500078 " transform="matrix(20,0,0,20,-8.9,-8.9)"/>
<path style="fill-rule:evenodd;fill:rgb(74.117649%,74.117649%,74.117649%);fill-opacity:1;stroke-width:0.05;stroke-linecap:butt;stroke-linejoin:miter;stroke:rgb(0%,0%,0%);stroke-opacity:1;stroke-miterlimit:10;" d="M 18.700078 8.500078 L 20.100078 8.500078 L 20.100078 10.500078 L 18.700078 10.500078 Z M 18.700078 8.500078 " transform="matrix(20,0,0,20,-8.9,-8.9)"/>
<path style="fill-rule:evenodd;fill:rgb(74.117649%,74.117649%,74.117649%);fill-opacity:1;stroke-width:0.05;stroke-linecap:butt;stroke-linejoin:miter;stroke:rgb(0%,0%,0%);stroke-opacity:1;stroke-miterlimit:10;" d="M 20.100078 6.500078 L 21.500078 6.500078 L 21.500078 8.500078 L 20.100078 8.500078 Z M 20.100078 6.500078 " transform="matrix(20,0,0,20,-8.9,-8.9)"/>
<path style="fill-rule:evenodd;fill:rgb(74.117649%,74.117649%,74.117649%);fill-opacity:1;stroke-width:0.05;stroke-linecap:butt;stroke-linejoin:miter;stroke:rgb(0%,0%,0%);stroke-opacity:1;stroke-miterlimit:10;" d="M 20.100078 8.500078 L 21.500078 8.500078 L 21.500078 10.500078 L 20.100078 10.500078 Z M 20.100078 8.500078 " transform="matrix(20,0,0,20,-8.9,-8.9)"/>
<path style="fill-rule:evenodd;fill:rgb(74.117649%,74.117649%,74.117649%);fill-opacity:1;stroke-width:0.05;stroke-linecap:butt;stroke-linejoin:miter;stroke:rgb(0%,0%,0%);stroke-opacity:1;stroke-miterlimit:10;" d="M 21.500078 6.500078 L 22.900078 6.500078 L 22.900078 8.500078 L 21.500078 8.500078 Z M 21.500078 6.500078 " transform="matrix(20,0,0,20,-8.9,-8.9)"/>
<path style="fill-rule:evenodd;fill:rgb(74.117649%,74.117649%,74.117649%);fill-opacity:1;stroke-width:0.05;stroke-linecap:butt;stroke-linejoin:miter;stroke:rgb(0%,0%,0%);stroke-opacity:1;stroke-miterlimit:10;" d="M 21.500078 8.500078 L 22.900078 8.500078 L 22.900078 10.500078 L 21.500078 10.500078 Z M 21.500078 8.500078 " transform="matrix(20,0,0,20,-8.9,-8.9)"/>
<path style="fill-rule:evenodd;fill:rgb(74.117649%,74.117649%,74.117649%);fill-opacity:1;stroke-width:0.05;stroke-linecap:butt;stroke-linejoin:miter;stroke:rgb(0%,0%,0%);stroke-opacity:1;stroke-miterlimit:10;" d="M 18.700078 10.500078 L 20.100078 10.500078 L 20.100078 12.500078 L 18.700078 12.500078 Z M 18.700078 10.500078 " transform="matrix(20,0,0,20,-8.9,-8.9)"/>
<path style="fill-rule:evenodd;fill:rgb(74.117649%,74.117649%,74.117649%);fill-opacity:1;stroke-width:0.05;stroke-linecap:butt;stroke-linejoin:miter;stroke:rgb(0%,0%,0%);stroke-opacity:1;stroke-miterlimit:10;" d="M 20.100078 10.500078 L 21.500078 10.500078 L 21.500078 12.500078 L 20.100078 12.500078 Z M 20.100078 10.500078 " transform="matrix(20,0,0,20,-8.9,-8.9)"/>
<path style="fill-rule:evenodd;fill:rgb(74.117649%,74.117649%,74.117649%);fill-opacity:1;stroke-width:0.05;stroke-linecap:butt;stroke-linejoin:miter;stroke:rgb(0%,0%,0%);stroke-opacity:1;stroke-miterlimit:10;" d="M 21.500078 10.500078 L 22.900078 10.500078 L 22.900078 12.500078 L 21.500078 12.500078 Z M 21.500078 10.500078 " transform="matrix(20,0,0,20,-8.9,-8.9)"/>
<path style="fill-rule:evenodd;fill:rgb(74.117649%,74.117649%,74.117649%);fill-opacity:1;stroke-width:0.05;stroke-linecap:butt;stroke-linejoin:miter;stroke:rgb(0%,0%,0%);stroke-opacity:1;stroke-miterlimit:10;" d="M 22.900078 6.500078 L 24.300078 6.500078 L 24.300078 8.500078 L 22.900078 8.500078 Z M 22.900078 6.500078 " transform="matrix(20,0,0,20,-8.9,-8.9)"/>
<path style="fill-rule:evenodd;fill:rgb(74.117649%,74.117649%,74.117649%);fill-opacity:1;stroke-width:0.05;stroke-linecap:butt;stroke-linejoin:miter;stroke:rgb(0%,0%,0%);stroke-opacity:1;stroke-miterlimit:10;" d="M 22.900078 8.500078 L 24.300078 8.500078 L 24.300078 10.500078 L 22.900078 10.500078 Z M 22.900078 8.500078 " transform="matrix(20,0,0,20,-8.9,-8.9)"/>
<path style="fill-rule:evenodd;fill:rgb(100%,100%,100%);fill-opacity:1;stroke-width:0.05;stroke-linecap:butt;stroke-linejoin:miter;stroke:rgb(0%,0%,0%);stroke-opacity:1;stroke-miterlimit:10;" d="M 24.300078 6.500078 L 25.700078 6.500078 L 25.700078 8.500078 L 24.300078 8.500078 Z M 24.300078 6.500078 " transform="matrix(20,0,0,20,-8.9,-8.9)"/>
<path style="fill-rule:evenodd;fill:rgb(100%,100%,100%);fill-opacity:1;stroke-width:0.05;stroke-linecap:butt;stroke-linejoin:miter;stroke:rgb(0%,0%,0%);stroke-opacity:1;stroke-miterlimit:10;" d="M 24.300078 8.500078 L 25.700078 8.500078 L 25.700078 10.500078 L 24.300078 10.500078 Z M 24.300078 8.500078 " transform="matrix(20,0,0,20,-8.9,-8.9)"/>
<path style="fill-rule:evenodd;fill:rgb(100%,100%,100%);fill-opacity:1;stroke-width:0.05;stroke-linecap:butt;stroke-linejoin:miter;stroke:rgb(0%,0%,0%);stroke-opacity:1;stroke-miterlimit:10;" d="M 25.700078 6.500078 L 27.100078 6.500078 L 27.100078 8.500078 L 25.700078 8.500078 Z M 25.700078 6.500078 " transform="matrix(20,0,0,20,-8.9,-8.9)"/>
<path style="fill-rule:evenodd;fill:rgb(100%,100%,100%);fill-opacity:1;stroke-width:0.05;stroke-linecap:butt;stroke-linejoin:miter;stroke:rgb(0%,0%,0%);stroke-opacity:1;stroke-miterlimit:10;" d="M 25.700078 8.500078 L 27.100078 8.500078 L 27.100078 10.500078 L 25.700078 10.500078 Z M 25.700078 8.500078 " transform="matrix(20,0,0,20,-8.9,-8.9)"/>
<path style="fill-rule:evenodd;fill:rgb(74.117649%,74.117649%,74.117649%);fill-opacity:1;stroke-width:0.05;stroke-linecap:butt;stroke-linejoin:miter;stroke:rgb(0%,0%,0%);stroke-opacity:1;stroke-miterlimit:10;" d="M 22.900078 10.500078 L 24.300078 10.500078 L 24.300078 12.500078 L 22.900078 12.500078 Z M 22.900078 10.500078 " transform="matrix(20,0,0,20,-8.9,-8.9)"/>
<path style="fill-rule:evenodd;fill:rgb(100%,100%,100%);fill-opacity:1;stroke-width:0.05;stroke-linecap:butt;stroke-linejoin:miter;stroke:rgb(0%,0%,0%);stroke-opacity:1;stroke-miterlimit:10;" d="M 24.300078 10.500078 L 25.700078 10.500078 L 25.700078 12.500078 L 24.300078 12.500078 Z M 24.300078 10.500078 " transform="matrix(20,0,0,20,-8.9,-8.9)"/>
<path style="fill-rule:evenodd;fill:rgb(100%,100%,100%);fill-opacity:1;stroke-width:0.05;stroke-linecap:butt;stroke-linejoin:miter;stroke:rgb(0%,0%,0%);stroke-opacity:1;stroke-miterlimit:10;" d="M 25.700078 10.500078 L 27.100078 10.500078 L 27.100078 12.500078 L 25.700078 12.500078 Z M 25.700078 10.500078 " transform="matrix(20,0,0,20,-8.9,-8.9)"/>
<path style="fill-rule:evenodd;fill:rgb(100%,100%,100%);fill-opacity:1;stroke-width:0.05;stroke-linecap:butt;stroke-linejoin:miter;stroke:rgb(0%,0%,0%);stroke-opacity:1;stroke-miterlimit:10;" d="M 14.500078 12.500078 L 15.900078 12.500078 L 15.900078 14.500078 L 14.500078 14.500078 Z M 14.500078 12.500078 " transform="matrix(20,0,0,20,-8.9,-8.9)"/>
<path style="fill-rule:evenodd;fill:rgb(100%,100%,100%);fill-opacity:1;stroke-width:0.05;stroke-linecap:butt;stroke-linejoin:miter;stroke:rgb(0%,0%,0%);stroke-opacity:1;stroke-miterlimit:10;" d="M 14.500078 14.500078 L 15.900078 14.500078 L 15.900078 16.500078 L 14.500078 16.500078 Z M 14.500078 14.500078 " transform="matrix(20,0,0,20,-8.9,-8.9)"/>
<path style="fill-rule:evenodd;fill:rgb(74.117649%,74.117649%,74.117649%);fill-opacity:1;stroke-width:0.05;stroke-linecap:butt;stroke-linejoin:miter;stroke:rgb(0%,0%,0%);stroke-opacity:1;stroke-miterlimit:10;" d="M 15.900078 12.500078 L 17.300078 12.500078 L 17.300078 14.500078 L 15.900078 14.500078 Z M 15.900078 12.500078 " transform="matrix(20,0,0,20,-8.9,-8.9)"/>
<path style="fill-rule:evenodd;fill:rgb(100%,100%,100%);fill-opacity:1;stroke-width:0.05;stroke-linecap:butt;stroke-linejoin:miter;stroke:rgb(0%,0%,0%);stroke-opacity:1;stroke-miterlimit:10;" d="M 15.900078 14.500078 L 17.300078 14.500078 L 17.300078 16.500078 L 15.900078 16.500078 Z M 15.900078 14.500078 " transform="matrix(20,0,0,20,-8.9,-8.9)"/>
<path style="fill-rule:evenodd;fill:rgb(74.117649%,74.117649%,74.117649%);fill-opacity:1;stroke-width:0.05;stroke-linecap:butt;stroke-linejoin:miter;stroke:rgb(0%,0%,0%);stroke-opacity:1;stroke-miterlimit:10;" d="M 17.300078 12.500078 L 18.700078 12.500078 L 18.700078 14.500078 L 17.300078 14.500078 Z M 17.300078 12.500078 " transform="matrix(20,0,0,20,-8.9,-8.9)"/>
<path style="fill-rule:evenodd;fill:rgb(100%,100%,100%);fill-opacity:1;stroke-width:0.05;stroke-linecap:butt;stroke-linejoin:miter;stroke:rgb(0%,0%,0%);stroke-opacity:1;stroke-miterlimit:10;" d="M 17.300078 14.500078 L 18.700078 14.500078 L 18.700078 16.500078 L 17.300078 16.500078 Z M 17.300078 14.500078 " transform="matrix(20,0,0,20,-8.9,-8.9)"/>
<path style="fill-rule:evenodd;fill:rgb(100%,100%,100%);fill-opacity:1;stroke-width:0.05;stroke-linecap:butt;stroke-linejoin:miter;stroke:rgb(0%,0%,0%);stroke-opacity:1;stroke-miterlimit:10;" d="M 14.500078 16.500078 L 15.900078 16.500078 L 15.900078 18.500078 L 14.500078 18.500078 Z M 14.500078 16.500078 " transform="matrix(20,0,0,20,-8.9,-8.9)"/>
<path style="fill-rule:evenodd;fill:rgb(100%,100%,100%);fill-opacity:1;stroke-width:0.05;stroke-linecap:butt;stroke-linejoin:miter;stroke:rgb(0%,0%,0%);stroke-opacity:1;stroke-miterlimit:10;" d="M 15.900078 16.500078 L 17.300078 16.500078 L 17.300078 18.500078 L 15.900078 18.500078 Z M 15.900078 16.500078 " transform="matrix(20,0,0,20,-8.9,-8.9)"/>
<path style="fill-rule:evenodd;fill:rgb(100%,100%,100%);fill-opacity:1;stroke-width:0.05;stroke-linecap:butt;stroke-linejoin:miter;stroke:rgb(0%,0%,0%);stroke-opacity:1;stroke-miterlimit:10;" d="M 17.300078 16.500078 L 18.700078 16.500078 L 18.700078 18.500078 L 17.300078 18.500078 Z M 17.300078 16.500078 " transform="matrix(20,0,0,20,-8.9,-8.9)"/>
<path style="fill-rule:evenodd;fill:rgb(74.117649%,74.117649%,74.117649%);fill-opacity:1;stroke-width:0.05;stroke-linecap:butt;stroke-linejoin:miter;stroke:rgb(0%,0%,0%);stroke-opacity:1;stroke-miterlimit:10;" d="M 18.700078 12.500078 L 20.100078 12.500078 L 20.100078 14.500078 L 18.700078 14.500078 Z M 18.700078 12.500078 " transform="matrix(20,0,0,20,-8.9,-8.9)"/>
<path style="fill-rule:evenodd;fill:rgb(100%,100%,100%);fill-opacity:1;stroke-width:0.05;stroke-linecap:butt;stroke-linejoin:miter;stroke:rgb(0%,0%,0%);stroke-opacity:1;stroke-miterlimit:10;" d="M 18.700078 14.500078 L 20.100078 14.500078 L 20.100078 16.500078 L 18.700078 16.500078 Z M 18.700078 14.500078 " transform="matrix(20,0,0,20,-8.9,-8.9)"/>
<path style="fill-rule:evenodd;fill:rgb(74.117649%,74.117649%,74.117649%);fill-opacity:1;stroke-width:0.05;stroke-linecap:butt;stroke-linejoin:miter;stroke:rgb(0%,0%,0%);stroke-opacity:1;stroke-miterlimit:10;" d="M 20.100078 12.500078 L 21.500078 12.500078 L 21.500078 14.500078 L 20.100078 14.500078 Z M 20.100078 12.500078 " transform="matrix(20,0,0,20,-8.9,-8.9)"/>
<path style="fill-rule:evenodd;fill:rgb(100%,100%,100%);fill-opacity:1;stroke-width:0.05;stroke-linecap:butt;stroke-linejoin:miter;stroke:rgb(0%,0%,0%);stroke-opacity:1;stroke-miterlimit:10;" d="M 20.100078 14.500078 L 21.500078 14.500078 L 21.500078 16.500078 L 20.100078 16.500078 Z M 20.100078 14.500078 " transform="matrix(20,0,0,20,-8.9,-8.9)"/>
<path style="fill-rule:evenodd;fill:rgb(74.117649%,74.117649%,74.117649%);fill-opacity:1;stroke-width:0.05;stroke-linecap:butt;stroke-linejoin:miter;stroke:rgb(0%,0%,0%);stroke-opacity:1;stroke-miterlimit:10;" d="M 21.500078 12.500078 L 22.900078 12.500078 L 22.900078 14.500078 L 21.500078 14.500078 Z M 21.500078 12.500078 " transform="matrix(20,0,0,20,-8.9,-8.9)"/>
<path style="fill-rule:evenodd;fill:rgb(100%,100%,100%);fill-opacity:1;stroke-width:0.05;stroke-linecap:butt;stroke-linejoin:miter;stroke:rgb(0%,0%,0%);stroke-opacity:1;stroke-miterlimit:10;" d="M 21.500078 14.500078 L 22.900078 14.500078 L 22.900078 16.500078 L 21.500078 16.500078 Z M 21.500078 14.500078 " transform="matrix(20,0,0,20,-8.9,-8.9)"/>
<path style="fill-rule:evenodd;fill:rgb(100%,100%,100%);fill-opacity:1;stroke-width:0.05;stroke-linecap:butt;stroke-linejoin:miter;stroke:rgb(0%,0%,0%);stroke-opacity:1;stroke-miterlimit:10;" d="M 18.700078 16.500078 L 20.100078 16.500078 L 20.100078 18.500078 L 18.700078 18.500078 Z M 18.700078 16.500078 " transform="matrix(20,0,0,20,-8.9,-8.9)"/>
<path style="fill-rule:evenodd;fill:rgb(100%,100%,100%);fill-opacity:1;stroke-width:0.05;stroke-linecap:butt;stroke-linejoin:miter;stroke:rgb(0%,0%,0%);stroke-opacity:1;stroke-miterlimit:10;" d="M 20.100078 16.500078 L 21.500078 16.500078 L 21.500078 18.500078 L 20.100078 18.500078 Z M 20.100078 16.500078 " transform="matrix(20,0,0,20,-8.9,-8.9)"/>
<path style="fill-rule:evenodd;fill:rgb(100%,100%,100%);fill-opacity:1;stroke-width:0.05;stroke-linecap:butt;stroke-linejoin:miter;stroke:rgb(0%,0%,0%);stroke-opacity:1;stroke-miterlimit:10;" d="M 21.500078 16.500078 L 22.900078 16.500078 L 22.900078 18.500078 L 21.500078 18.500078 Z M 21.500078 16.500078 " transform="matrix(20,0,0,20,-8.9,-8.9)"/>
<path style="fill-rule:evenodd;fill:rgb(74.117649%,74.117649%,74.117649%);fill-opacity:1;stroke-width:0.05;stroke-linecap:butt;stroke-linejoin:miter;stroke:rgb(0%,0%,0%);stroke-opacity:1;stroke-miterlimit:10;" d="M 22.900078 12.500078 L 24.300078 12.500078 L 24.300078 14.500078 L 22.900078 14.500078 Z M 22.900078 12.500078 " transform="matrix(20,0,0,20,-8.9,-8.9)"/>
<path style="fill-rule:evenodd;fill:rgb(100%,100%,100%);fill-opacity:1;stroke-width:0.05;stroke-linecap:butt;stroke-linejoin:miter;stroke:rgb(0%,0%,0%);stroke-opacity:1;stroke-miterlimit:10;" d="M 22.900078 14.500078 L 24.300078 14.500078 L 24.300078 16.500078 L 22.900078 16.500078 Z M 22.900078 14.500078 " transform="matrix(20,0,0,20,-8.9,-8.9)"/>
<path style="fill-rule:evenodd;fill:rgb(100%,100%,100%);fill-opacity:1;stroke-width:0.05;stroke-linecap:butt;stroke-linejoin:miter;stroke:rgb(0%,0%,0%);stroke-opacity:1;stroke-miterlimit:10;" d="M 24.300078 12.500078 L 25.700078 12.500078 L 25.700078 14.500078 L 24.300078 14.500078 Z M 24.300078 12.500078 " transform="matrix(20,0,0,20,-8.9,-8.9)"/>
<path style="fill-rule:evenodd;fill:rgb(100%,100%,100%);fill-opacity:1;stroke-width:0.05;stroke-linecap:butt;stroke-linejoin:miter;stroke:rgb(0%,0%,0%);stroke-opacity:1;stroke-miterlimit:10;" d="M 24.300078 14.500078 L 25.700078 14.500078 L 25.700078 16.500078 L 24.300078 16.500078 Z M 24.300078 14.500078 " transform="matrix(20,0,0,20,-8.9,-8.9)"/>
<path style="fill-rule:evenodd;fill:rgb(100%,100%,100%);fill-opacity:1;stroke-width:0.05;stroke-linecap:butt;stroke-linejoin:miter;stroke:rgb(0%,0%,0%);stroke-opacity:1;stroke-miterlimit:10;" d="M 25.700078 12.500078 L 27.100078 12.500078 L 27.100078 14.500078 L 25.700078 14.500078 Z M 25.700078 12.500078 " transform="matrix(20,0,0,20,-8.9,-8.9)"/>
<path style="fill-rule:evenodd;fill:rgb(100%,100%,100%);fill-opacity:1;stroke-width:0.05;stroke-linecap:butt;stroke-linejoin:miter;stroke:rgb(0%,0%,0%);stroke-opacity:1;stroke-miterlimit:10;" d="M 25.700078 14.500078 L 27.100078 14.500078 L 27.100078 16.500078 L 25.700078 16.500078 Z M 25.700078 14.500078 " transform="matrix(20,0,0,20,-8.9,-8.9)"/>
<path style="fill-rule:evenodd;fill:rgb(100%,100%,100%);fill-opacity:1;stroke-width:0.05;stroke-linecap:butt;stroke-linejoin:miter;stroke:rgb(0%,0%,0%);stroke-opacity:1;stroke-miterlimit:10;" d="M 22.900078 16.500078 L 24.300078 16.500078 L 24.300078 18.500078 L 22.900078 18.500078 Z M 22.900078 16.500078 " transform="matrix(20,0,0,20,-8.9,-8.9)"/>
<path style="fill-rule:evenodd;fill:rgb(100%,100%,100%);fill-opacity:1;stroke-width:0.05;stroke-linecap:butt;stroke-linejoin:miter;stroke:rgb(0%,0%,0%);stroke-opacity:1;stroke-miterlimit:10;" d="M 24.300078 16.500078 L 25.700078 16.500078 L 25.700078 18.500078 L 24.300078 18.500078 Z M 24.300078 16.500078 " transform="matrix(20,0,0,20,-8.9,-8.9)"/>
<path style="fill-rule:evenodd;fill:rgb(100%,100%,100%);fill-opacity:1;stroke-width:0.05;stroke-linecap:butt;stroke-linejoin:miter;stroke:rgb(0%,0%,0%);stroke-opacity:1;stroke-miterlimit:10;" d="M 25.700078 16.500078 L 27.100078 16.500078 L 27.100078 18.500078 L 25.700078 18.500078 Z M 25.700078 16.500078 " transform="matrix(20,0,0,20,-8.9,-8.9)"/>
</g>
</svg>
